Fish heart activity
…
fish_weight

# A tibble: 65 × 2
   fish_number observation
         <dbl>       <dbl>
 1          14       0.334
 2          14       0.339
 3          14       0.343
 4          14       0.329
 5          14       0.330
 6          14       0.330
 7           4       0.309
 8           4       0.306
 9           4       0.306
10           1       0.475
# ℹ 55 more rows
…
